…
I forgot my external HDD at home today so I had to make a copy of the data on work laptop:

C:\Users\bjl34716\regmi\RFID_bird_tracking

One Issue is: 

```bash
room_2_all_room_day$night_int[[1]]$daily_int

[[77]]
    t1         t2 from_zone to_zone
1 <NA> 1620259195      <NA>  bottom

> room_2_all_room_day$night_int[[1]]$by_day[[77]]
# A tsibble: 5,062 x 3 [1s] <UTC>
   datetime            value  day
   <dttm>              <chr>  <lgl>
 1 2021-05-05 00:00:00 bottom FALSE
 2 2021-05-05 00:00:05 bottom FALSE
 3 2021-05-05 00:00:10 bottom FALSE
 4 2021-05-05 00:00:15 bottom FALSE
 5 2021-05-05 00:00:20 bottom FALSE
 6 2021-05-05 00:00:25 bottom FALSE
 7 2021-05-05 00:00:30 bottom FALSE
 8 2021-05-05 00:00:35 bottom FALSE
 9 2021-05-05 00:00:40 bottom FALSE
10 2021-05-05 00:00:45 bottom FALSE
# … with 5,052 more rows
```
…
